{
  "result": [
    "Dief",
    "@RtHonJoeClark",
    "Mulroney",
    "@stephenharper"
  ],
  "text": "I take a look at the electoral math behind blue wins - Dief, @RtHonJoeClark , Mulroney, and @stephenharper - from 1962 to 2011.",
  "id": "timestamp_tweetid1179821702676717600",
  "entryId": 5,
  "Timestamp": "Thu Oct 03 18:13:05 +0000 2019",
  "metadata": [
    {
      "entity": "PER",
      "sentence": "0",
      "chunk": "0"
    },
    {
      "entity": "PER",
      "sentence": "0",
      "chunk": "1"
    },
    {
      "entity": "PER",
      "sentence": "0",
      "chunk": "2"
    },
    {
      "entity": "PER",
      "sentence": "0",
      "chunk": "3"
    }
  ]
}
