{"result":["positive"],"text":"Fun fact: Canada didn’t buy a pipeline because Libs wanted one.","id":1179821702676717600,"entryId":1,"Timestamp":"Thu Oct 03 18:13:08 +0000 2019","metadata":[{"confidence":"0.4959"}]}
{"result":["negative"],"text":"They bought a pipeline because Harper signed an agreement that says build it, or China can take Canada to a secret tribunal and we pay them damages.","id":1179821702676717600,"entryId":2,"Timestamp":"Thu Oct 03 18:13:08 +0000 2019","metadata":[{"confidence":"0.5301"}]}
{"result":["na"],"text":"🤷\\u200d♂️  #cdnpoli #elxn43 #ClimateStrike  https://t.co/kzP1pTpTF5 https://t.co/9MLGnHIs7W","id":1179821702676717600,"entryId":3,"Timestamp":"Thu Oct 03 18:13:08 +0000 2019","metadata":[{"confidence":"0.0"}]}
{"result":["negative"],"text":"New blog post: Does @AndrewScheer have a pathway to power?","id":1179821688252317700,"entryId":4,"Timestamp":"Thu Oct 03 18:13:05 +0000 2019","metadata":[{"confidence":"0.5758"}]}
